<?xml version="1.0" encoding="UTF-8" standalone="no"?>
<!-- Created with Inkscape (http://www.inkscape.org/) -->

<svg
   width="144mm"
   height="144mm"
   viewBox="0 0 144 144"
   version="1.1"
   id="svg1"
   sodipodi:docname="fav08.svg"
   inkscape:version="1.3.2 (091e20ef0f, 2023-11-25, custom)"
   xmlns:inkscape="http://www.inkscape.org/namespaces/inkscape"
   xmlns:sodipodi="http://sodipodi.sourceforge.net/DTD/sodipodi-0.dtd"
   xmlns="http://www.w3.org/2000/svg"
   xmlns:svg="http://www.w3.org/2000/svg">
  <sodipodi:namedview
     id="namedview1"
     pagecolor="#ffffff"
     bordercolor="#666666"
     borderopacity="1.0"
     inkscape:showpageshadow="false"
     inkscape:pageopacity="0.0"
     inkscape:pagecheckerboard="0"
     inkscape:deskcolor="#d1d1d1"
     inkscape:document-units="mm"
     showborder="true"
     labelstyle="default"
     inkscape:zoom="1.3167042"
     inkscape:cx="421.50699"
     inkscape:cy="267.7139"
     inkscape:window-width="1920"
     inkscape:window-height="1007"
     inkscape:window-x="0"
     inkscape:window-y="0"
     inkscape:window-maximized="1"
     inkscape:current-layer="layer1" />
  <defs
     id="defs1">
    <inkscape:path-effect
       effect="spiro"
       id="path-effect7"
       is_visible="true"
       lpeversion="1" />
    <inkscape:path-effect
       effect="spiro"
       id="path-effect5"
       is_visible="true"
       lpeversion="1" />
    <inkscape:path-effect
       effect="spiro"
       id="path-effect3"
       is_visible="true"
       lpeversion="1" />
  </defs>
  <g
     inkscape:label="Calque 1"
     inkscape:groupmode="layer"
     id="layer1">
    <path
       style="font-size:216.449px;line-height:1.25;font-family:DINdong;-inkscape-font-specification:'DINdong, Normal';text-align:center;text-anchor:middle;fill:#9000ff;fill-opacity:1;stroke-width:0.264583"
       d="m 68.480322,76.656866 c 0,0 -7.110689,23.087521 -10.116979,34.762244 -2.077457,8.06766 -5.46817,24.36314 -5.46817,24.36314 h 45.379138 c 0,0 -3.950252,-19.78608 -7.184462,-29.3607 -2.636156,-7.804128 -9.909352,-22.740443 -9.909352,-22.740443 0,0 14.493626,13.476442 21.652273,20.295823 6.19881,5.90503 18.44253,17.8545 18.44253,17.8545 l 21.98311,-36.831617 c 0,0 -16.51121,-7.491634 -25.37268,-9.451246 -10.05482,-2.223508 -30.887185,-2.472802 -30.887185,-2.472802 0,0 19.821635,-6.710598 29.838025,-9.776025 8.74957,-2.677729 26.42184,-7.523303 26.42184,-7.523303 L 121.2753,17.411696 c 0,0 -12.90735,11.566429 -18.18287,18.258821 -6.012832,7.627729 -15.116519,24.655861 -15.116519,24.655861 0,0 4.315391,-23.500291 6.174263,-35.293656 1.130903,-7.174869 3.028267,-21.5718406 3.028267,-21.5718406 H 56.182784 c 0,0 -1.200494,9.6339436 0.565455,17.3387966 5.062365,22.08715 17.251683,38.539237 17.251683,38.539237 0,0 -21.127429,-19.589823 -31.705247,-29.371479 C 37.764681,25.778402 28.692623,17.411696 28.692623,17.411696 L 6.709521,50.666026 c 0,0 16.140094,9.724102 25.222754,12.259718 11.39791,3.181967 35.509874,3.364895 35.509874,3.364895 0,0 -24.080752,6.071776 -35.999341,9.492468 C 23.137409,78.166796 6.709521,83.46669 6.709521,83.46669 l 19.791362,35.80953 c 0,0 11.73988,-8.50792 16.897441,-13.46935 9.298396,-8.944778 25.081998,-29.150004 25.081998,-29.150004 z"
       id="text7"
       aria-label="*"
       sodipodi:nodetypes="caccacaccacaccacaccscaccacaccac"
       transform="scale(0.96574699,1.0354679)" />
  </g>
</svg>
