<?xml version="1.0" encoding="utf-8"?>
<!-- Generator: Adobe Illustrator 26.3.1, SVG Export Plug-In . SVG Version: 6.00 Build 0)  -->
<svg version="1.1" id="Calque_2_00000007430031116872253060000001839653881119041162_"
	 xmlns="http://www.w3.org/2000/svg" xmlns:xlink="http://www.w3.org/1999/xlink" x="0px" y="0px" viewBox="0 0 834 892.4"
	 style="enable-background:new 0 0 834 892.4;" xml:space="preserve">
<style type="text/css">
	.st0{fill:#FFFFFF;stroke:#000000;stroke-width:1.5;stroke-miterlimit:10;}
</style>
<path class="st0" d="M832.3,345.5c0-144.2-116.9-261.1-261.1-261.1c-54.2,0-104.5,16.5-146.3,44.8C398.1,54.8,326.9,1.6,243.4,1.6
	C136.9,1.6,50.6,87.9,50.6,194.4c0,53.1,21.5,101.3,56.3,136.1C43.1,378.1,1.8,454.1,1.8,539.8c0,144.2,116.9,261.1,261.1,261.1
	c15.2,0,30.1-1.3,44.6-3.8c47.9,57.2,119.8,93.5,200.2,93.5c144.2,0,261.1-116.9,261.1-261.1c0-33.5-6.3-65.5-17.8-94.9
	C801.1,487.1,832.3,419.9,832.3,345.5L832.3,345.5z"/>
</svg>
